0,40,70,20,0,0,2,right,right_up,0
0,40,70,20,0,0,2,left,left_low,0
0,60,60,15,0,0,2,right,left_up,0
0,40,70,0,0,0,2,right,right_low,0
0,60,60,15,0,0,2,left,left_low,0
0,50,70,25,0,0,2,left,left_low,0
0,60,60,20,0,0,1,left,left_low,0
0,40,70,50,0,0,2,left,left_low,0
0,40,70,20,0,0,2,right,left_up,0
0,40,70,0,0,0,3,left,central,0
0,50,60,25,0,0,2,left,left_low,0
0,60,50,10,0,0,1,left,right_up,0
0,50,60,25,0,0,3,left,right_up,0
0,40,70,30,0,0,3,left,left_up,0
0,60,50,30,0,0,1,left,left_low,0
0,40,70,15,0,0,2,left,left_low,0
0,50,70,30,0,0,3,left,left_low,0
0,60,60,30,0,0,3,left,left_low,0
0,50,60,30,0,0,1,right,right_up,0
0,50,60,40,0,0,2,left,left_low,0
0,60,60,15,0,0,2,left,left_low,0
0,30,70,25,0,0,2,right,left_low,0
0,50,70,40,0,0,2,left,left_up,0
0,50,70,35,0,0,2,right,left_up,0
0,40,70,25,0,0,2,left,left_up,0
0,50,70,20,0,0,1,left,left_low,0
0,60,60,25,0,0,3,right,left_up,0
0,40,70,40,0,0,2,right,left_low,0
0,60,60,30,0,0,2,left,left_low,0
0,50,60,40,0,0,3,right,left_up,0
0,50,70,15,0,0,2,right,left_low,0
0,50,70,10,0,0,3,left,left_low,0
0,50,60,10,0,0,1,right,left_up,0
0,50,60,10,0,0,1,left,left_up,0
0,30,70,30,0,0,2,left,left_up,0
0,50,60,0,0,0,2,left,central,0
0,50,60,15,0,0,1,right,central,0
0,40,70,10,0,0,2,left,left_low,0
0,40,70,30,0,0,1,left,left_low,0
0,50,60,20,0,0,1,right,left_low,0
0,60,60,25,0,0,2,left,left_low,0
0,60,60,5,0,0,1,left,central,0
0,40,70,10,0,0,2,left,left_up,0
0,50,60,50,0,0,1,right,right_up,0
0,50,60,30,0,0,1,left,left_up,0
0,40,70,25,0,0,2,right,left_low,0
0,50,70,25,0,0,1,right,left_up,0
0,40,70,20,0,0,1,right,right_up,0
0,40,70,20,0,0,1,right,left_low,0
0,50,50,15,0,0,2,left,left_low,0
0,30,70,20,0,0,2,left,right_low,0
0,50,70,15,0,0,1,left,left_low,0
0,70,60,20,0,0,3,left,left_up,0
0,70,60,40,0,0,1,right,left_up,0
0,70,60,40,0,0,1,right,right_up,0
0,50,60,0,0,0,1,right,central,0
0,50,60,5,0,0,2,right,right_up,0
0,60,60,30,0,0,1,left,left_up,0
0,60,60,15,0,0,1,right,left_up,0
0,40,70,20,0,0,2,left,central,0
0,40,70,10,0,0,1,right,right_low,0
0,50,60,0,0,0,1,left,left_low,0
0,20,70,35,0,0,2,right,right_up,0
0,40,70,25,0,0,1,left,right_low,0
0,40,70,10,0,0,1,right,left_up,0
0,40,70,25,0,0,1,right,right_low,0
0,50,60,20,0,0,3,left,left_up,0
0,50,60,35,0,0,3,left,left_low,0
0,60,60,50,0,0,2,left,left_low,0
0,60,60,10,0,0,1,left,left_low,0
0,40,70,25,0,0,2,right,left_up,0
0,60,60,20,0,0,2,left,left_up,0
0,50,70,15,0,0,2,right,right_low,0
0,30,70,5,0,0,2,left,right_low,0
0,50,60,10,0,0,1,left,left_low,0
0,50,60,10,0,0,2,left,left_low,0
0,30,70,25,0,0,1,left,central,0
0,50,70,25,0,0,2,left,left_low,0
0,40,70,25,0,0,2,right,central,0
0,50,60,10,0,0,2,right,left_low,0
0,60,60,10,0,0,1,left,left_up,0
0,60,60,15,0,0,2,right,left_low,0
0,50,60,15,0,0,2,right,left_low,0
0,40,70,20,0,0,1,left,right_low,0
0,50,60,35,0,0,3,left,left_up,0
0,60,60,25,0,0,2,right,left_low,0
0,70,60,0,0,0,1,left,right_low,0
0,50,60,20,0,0,3,right,left_up,0
0,40,70,40,0,0,1,right,left_up,0
0,30,70,0,0,0,2,right,central,0
0,50,60,20,0,0,3,left,left_up,0
0,50,60,25,0,0,2,right,left_up,0
0,60,60,20,0,0,2,right,left_up,0
0,50,70,10,0,0,1,left,left_low,0
0,40,70,30,0,0,2,right,right_low,0
0,60,60,30,0,0,2,left,left_up,0
0,60,60,15,0,0,2,right,left_up,0
0,40,70,30,0,0,1,left,right_up,0
0,30,70,25,0,0,2,left,left_low,0
0,40,60,20,0,0,3,left,left_low,0
0,50,60,30,0,0,3,right,left_low,0
0,50,70,25,0,0,2,right,right_low,0
0,40,70,20,0,0,2,left,right_low,0
0,40,70,10,0,0,2,right,left_low,0
0,40,70,30,0,0,1,right,left_up,0
0,40,70,20,0,0,2,left,left_up,0
0,30,70,40,0,0,2,right,right_up,0
0,40,70,30,0,0,3,right,right_up,0
0,60,60,30,0,0,1,right,left_up,0
0,50,60,25,0,0,1,left,left_low,0
0,50,60,15,0,0,1,right,central,0
0,40,70,20,0,0,2,right,left_up,0
0,40,70,10,0,0,1,right,left_up,0
0,40,70,35,0,0,2,right,right_up,0
0,50,60,20,0,0,2,right,left_up,0
0,30,70,15,0,0,1,left,left_low,0
0,40,60,20,0,0,3,left,left_up,0
0,30,70,10,0,0,1,right,left_low,0
0,60,60,15,0,0,1,left,right_low,0
0,60,60,20,0,0,1,left,left_low,0
0,50,60,15,0,0,2,right,right_up,0
0,50,60,40,0,0,3,left,left_up,0
0,50,60,30,0,0,1,right,left_low,0
0,60,60,10,0,0,1,right,left_low,0
0,70,60,10,0,0,2,left,central,0
0,30,70,30,6,1,2,right,right_up,0
0,30,70,25,6,1,2,right,left_up,1
0,50,70,25,0,1,2,left,left_up,0
0,40,70,35,9,1,2,right,left_up,1
0,40,70,35,9,1,2,right,right_up,1
0,40,70,40,3,1,3,right,left_up,1
0,40,70,30,6,0,2,left,left_up,0
0,50,60,40,0,0,3,left,right_up,0
0,60,60,30,0,0,2,left,left_low,1
0,30,70,20,3,0,2,right,central,0
0,30,70,40,3,0,3,right,right_up,1
0,40,70,5,0,0,1,left,left_low,1
0,30,70,40,0,0,2,left,left_low,1
0,40,70,30,0,0,2,left,right_low,0
0,50,60,40,3,1,2,left,left_low,0
0,50,70,20,3,1,2,left,left_low,0
0,60,60,10,0,0,1,left,left_up,0
0,40,70,45,0,0,2,left,left_low,1
0,60,60,45,6,1,3,left,central,0
0,40,70,25,0,0,2,left,right_low,1
0,60,60,50,0,0,2,right,left_up,1
0,50,70,30,3,1,2,left,left_low,1
0,30,70,20,0,0,3,left,central,0
0,50,50,30,0,0,3,right,left_up,0
0,50,60,25,15,1,3,right,left_up,0
0,60,60,30,3,1,3,left,left_low,0
0,50,60,35,15,0,3,left,left_low,0
0,60,60,15,0,0,3,right,left_up,1
0,30,50,15,0,0,3,right,left_up,0
0,60,60,40,3,0,2,right,left_up,1
0,50,60,25,3,1,3,right,left_up,0
0,50,70,30,0,0,1,left,central,0
0,50,60,30,0,0,1,right,central,0
0,40,70,35,0,0,1,left,left_low,0
0,40,70,25,0,0,3,right,left_up,1
0,40,70,30,3,1,2,right,left_low,0
0,60,60,10,0,0,2,right,left_up,1
0,60,60,25,3,0,1,right,left_up,1
0,60,60,25,3,0,1,right,left_low,1
0,40,70,20,3,0,2,right,left_up,0
0,40,70,20,3,0,2,right,left_low,0
0,40,60,40,15,1,2,right,left_up,1
0,50,70,10,0,0,2,right,left_up,0
0,40,60,30,0,0,2,left,left_up,1
0,30,70,20,3,1,2,right,left_up,1
0,30,70,15,0,0,1,left,left_low,0
0,60,60,30,6,1,2,right,right_up,0
0,50,60,20,3,1,2,right,left_up,0
0,50,70,25,3,1,2,left,left_low,1
0,40,70,30,0,0,2,right,right_up,1
0,40,60,25,0,0,2,left,left_low,0
0,60,60,10,0,0,2,left,left_low,0
0,50,70,25,3,0,2,right,left_up,1
0,40,70,20,0,0,3,right,left_low,1
0,40,70,35,0,1,3,right,left_up,1
0,40,70,35,0,1,3,right,left_low,1
0,40,70,25,0,0,1,right,left_low,1
0,50,60,30,9,0,3,left,left_up,1
0,50,60,30,9,0,3,left,left_low,1
0,40,70,20,6,0,2,right,left_low,1
0,50,60,25,0,0,1,left,right_low,0
0,60,60,15,0,0,2,left,left_up,1
0,40,70,10,0,0,2,right,left_up,0
0,50,60,20,0,1,2,right,left_up,0
0,40,70,15,12,0,3,right,right_low,1
0,40,70,25,0,0,2,left,left_up,1
0,50,60,30,6,1,2,left,left_low,0
0,30,70,10,0,0,2,left,right_low,0
0,50,70,50,0,1,2,right,left_up,1
0,50,60,35,0,0,2,left,left_up,0
0,50,70,10,3,0,1,right,left_up,0
0,40,70,10,0,0,2,left,left_low,1
0,50,60,15,0,1,2,left,central,1
0,50,70,25,0,0,1,left,left_low,0
0,60,60,25,0,0,3,right,left_low,0
1,50,70,15,0,0,2,left,left_low,0
1,40,70,40,0,0,1,left,left_low,0
1,50,60,35,0,0,2,left,left_low,0
1,50,70,25,0,0,2,left,right_up,0
1,30,70,0,0,0,2,right,central,0
1,50,60,30,0,0,3,left,0,0
1,50,70,25,0,0,2,left,right_up,0
1,50,70,30,0,0,3,left,right_up,0
1,40,70,35,0,0,1,right,left_up,0
1,40,70,20,0,0,2,left,left_low,0
1,50,60,20,0,0,2,right,central,0
1,40,70,30,0,0,3,right,right_up,0
1,50,70,25,0,0,1,right,left_up,0
1,60,60,40,0,0,2,right,left_low,0
1,40,60,20,0,0,2,right,left_up,0
1,50,60,20,0,0,2,left,left_up,0
1,40,70,15,0,0,2,left,left_up,0
1,60,60,30,0,0,3,right,central,0
1,30,70,15,0,0,1,right,left_low,0
1,40,70,25,0,0,3,left,right_up,0
1,30,70,30,0,0,1,right,left_up,0
1,60,60,25,0,0,3,left,right_low,1
1,60,60,20,0,0,3,right,left_low,0
1,30,70,25,3,1,3,left,left_low,1
1,40,60,20,3,0,3,right,left_low,1
1,40,70,30,15,1,3,left,left_low,0
1,50,70,30,0,0,3,right,left_up,1
1,60,60,40,3,1,3,right,left_low,0
1,60,60,45,0,0,1,right,right_up,1
1,50,70,50,9,1,2,right,left_up,0
1,40,70,30,3,0,2,right,left_up,0
1,30,70,30,3,0,3,right,left_up,1
1,70,60,15,9,0,1,left,left_low,1
1,60,60,30,0,0,3,right,left_up,1
1,50,70,25,3,1,3,left,left_low,1
1,40,70,25,0,0,2,right,left_low,0
1,40,70,25,0,0,2,right,left_low,0
1,30,70,35,0,0,3,left,left_low,0
1,40,70,20,3,1,2,right,right_up,1
1,60,60,20,3,0,2,left,left_low,1
1,40,70,15,15,1,3,left,left_low,0
1,50,60,25,6,0,3,left,left_low,1
1,50,60,20,3,1,3,right,right_up,0
1,40,70,30,12,1,3,left,left_up,1
1,30,70,30,9,0,2,right,left_up,1
1,30,70,15,6,1,3,left,left_low,1
1,50,60,30,9,1,3,left,right_low,1
1,60,60,35,6,1,3,left,left_low,0
1,30,70,20,3,1,2,left,left_low,0
1,40,70,25,0,0,3,left,left_up,0
1,40,70,50,0,0,2,right,left_low,1
1,30,70,40,0,0,1,left,left_up,0
1,60,60,50,0,0,3,right,left_up,0
1,40,70,30,0,1,3,right,right_up,0
1,40,70,30,6,1,3,right,left_up,0
1,40,70,30,0,0,1,left,left_low,1
1,40,70,20,3,1,2,left,left_low,1
1,50,60,30,6,1,2,left,right_low,1
1,50,60,30,3,0,3,right,left_up,0
1,60,60,25,3,0,2,right,right_up,0
1,40,60,25,12,1,3,left,right_low,1
1,60,60,25,0,0,3,left,left_up,0
1,50,50,20,0,0,1,left,left_up,0
1,50,50,20,0,0,1,left,left_low,0
1,30,70,35,9,1,3,left,left_low,0
1,40,70,30,3,1,2,left,right_up,0
1,60,60,20,24,1,3,left,left_low,1
1,30,70,35,0,0,3,left,left_low,0
1,40,70,25,0,0,2,left,left_low,1
1,50,60,30,6,1,3,left,right_low,0
1,50,70,25,0,0,3,right,left_low,1
1,40,70,15,0,1,3,right,left_up,0
1,60,60,30,0,1,2,right,right_up,1
1,60,60,30,3,1,2,left,central,1
1,40,70,25,9,1,3,right,left_up,0
1,30,70,25,6,1,3,left,right_low,1
1,60,60,10,6,1,3,left,left_up,1
1,50,70,35,15,1,3,right,right_up,0
1,50,60,40,6,1,3,left,left_low,1
1,50,60,40,6,1,3,left,left_low,1
1,30,70,30,0,0,2,left,left_up,0
1,30,70,20,0,0,3,left,left_up,1
1,60,60,20,0,0,1,right,left_up,0
1,40,60,30,3,0,3,left,left_low,0
1,50,60,30,3,0,3,left,left_low,0